[api-updater (non-obsolete-error-filter)] 4/17/2021 11:36:24 AM : Starting C:/Program Files/Unity/Hub/Editor/2020.3.0f1/Editor/Data/Tools/ScriptUpdater/APIUpdater.NonObsoleteApiUpdaterDetector.exe
[api-updater (non-obsolete-error-filter)] 
----------------------------------
jit/startup time      : 1101.5497ms
moved types parse time: 81ms
candidates parse time : 2ms
C# parse time         : 365ms
candidates check time : 44ms
console write time    : 1ms

